Recreating Some Tidy-Style R Operations with Python and Polars – Lance Couzens
…
Example 2. Basic Mutate with Grouping and without Generalization

Here we want to add a new variable to our data frame—the new variable is the ratio of each value of mpg relative to the mean value for the group (defined by the levels of the variable cyl).

R Version

In R I can create the new variable with a call to mutate() that utilizes both group-level statistics and record-level data. This can be done in a single step with very little code.

table<-mtcars %>%
    group_by(cyl) %>%
    mutate(rel.mpg=mpg/mean(mpg))

print(table)

# A tibble: 32 × 12
# Groups:   cyl [3]
     mpg   cyl  disp    hp  drat    wt  qsec    vs    am  gear  carb rel.mpg
   <dbl> <dbl> <dbl> <dbl> <dbl> <dbl> <dbl> <dbl> <dbl> <dbl> <dbl>   <dbl>
 1  21       6  160    110  3.9   2.62  16.5     0     1     4     4   1.06 
 2  21       6  160    110  3.9   2.88  17.0     0     1     4     4   1.06 
 3  22.8     4  108     93  3.85  2.32  18.6     1     1     4     1   0.855
 4  21.4     6  258    110  3.08  3.22  19.4     1     0     3     1   1.08 
 5  18.7     8  360    175  3.15  3.44  17.0     0     0     3     2   1.24 
 6  18.1     6  225    105  2.76  3.46  20.2     1     0     3     1   0.917
 7  14.3     8  360    245  3.21  3.57  15.8     0     0     3     4   0.947
 8  24.4     4  147.    62  3.69  3.19  20       1     0     4     2   0.915
 9  22.8     4  141.    95  3.92  3.15  22.9     1     0     4     2   0.855
10  19.2     6  168.   123  3.92  3.44  18.3     1     0     4     4   0.973
# ℹ 22 more rows
…
Here we use very simple forms of pivot_longer() and pivot_wider().

library(tidyr)
library(tibble)

cars<-rownames_to_column(mtcars,"car") %>%
  pivot_longer(
    cols=where(is.numeric)
    ,names_to="variable"
    ,values_to="value"
  )

print(cars)

# A tibble: 352 × 3
   car       variable  value
   <chr>     <chr>     <dbl>
 1 Mazda RX4 mpg       21   
 2 Mazda RX4 cyl        6   
 3 Mazda RX4 disp     160   
 4 Mazda RX4 hp       110   
 5 Mazda RX4 drat       3.9 
 6 Mazda RX4 wt         2.62
 7 Mazda RX4 qsec      16.5 
 8 Mazda RX4 vs         0   
 9 Mazda RX4 am         1   
10 Mazda RX4 gear       4   
# ℹ 342 more rows

mtcars_w_names<-cars %>%
  pivot_wider(
    id_cols=car
    ,names_from="variable"
    ,values_from="value"
  )

print(mtcars_w_names)

# A tibble: 32 × 12
   car           mpg   cyl  disp    hp  drat    wt  qsec    vs    am  gear  carb
   <chr>       <dbl> <dbl> <dbl> <dbl> <dbl> <dbl> <dbl> <dbl> <dbl> <dbl> <dbl>
 1 Mazda RX4    21       6  160    110  3.9   2.62  16.5     0     1     4     4
 2 Mazda RX4 …  21       6  160    110  3.9   2.88  17.0     0     1     4     4
 3 Datsun 710   22.8     4  108     93  3.85  2.32  18.6     1     1     4     1
 4 Hornet 4 D…  21.4     6  258    110  3.08  3.22  19.4     1     0     3     1
 5 Hornet Spo…  18.7     8  360    175  3.15  3.44  17.0     0     0     3     2
 6 Valiant      18.1     6  225    105  2.76  3.46  20.2     1     0     3     1
 7 Duster 360   14.3     8  360    245  3.21  3.57  15.8     0     0     3     4
 8 Merc 240D    24.4     4  147.    62  3.69  3.19  20       1     0     4     2
 9 Merc 230     22.8     4  141.    95  3.92  3.15  22.9     1     0     4     2
10 Merc 280     19.2     6  168.   123  3.92  3.44  18.3     1     0     4     4
# ℹ 22 more rows
…
